{
  "count": 27,
  "next": "http://localhost:8000/api/home/?page=2",
  "previous": null,
  "results": {
    "rows": [
      {
        "id": 356972,
        "name": "western",
        "title_list": [
          {
            "id": 372043,
            "name": "Wynonna Earp",
            "type": "s",
            "is_new": true,
            "rated": "G",
            "rating": null,
            "genres": [
              {
                "id": 356960,
                "name": "action"
              },
              {
                "id": 356972,
                "name": "western"
              }
            ],
            "released_at": "2020-04-13T09:19:46.342018+03:00"
          },
          {
            "id": 357559,
            "name": "The Warrant",
            "type": "m",
            "is_new": true,
            "rated": "G",
            "rating": 6.0,
            "genres": [
              {
                "id": 356972,
                "name": "western"
              }
            ],
            "released_at": "2020-04-13T09:19:46.342018+03:00"
          },
          {
            "id": 371823,
            "name": "Deputy",
            "type": "s",
            "is_new": true,
            "rated": "G",
            "rating": null,
            "genres": [
              {
                "id": 356817,
                "name": "drama"
              },
              {
                "id": 356955,
                "name": "crime"
              },
              {
                "id": 356972,
                "name": "western"
              }
            ],
            "released_at": "2020-04-13T09:19:46.342018+03:00"
          },
          {
            "id": 357461,
            "name": "Hell on the Border",
            "type": "m",
            "is_new": true,
            "rated": "G",
            "rating": 5.8,
            "genres": [
              {
                "id": 356963,
                "name": "adventure"
              },
              {
                "id": 356972,
                "name": "western"
              }
            ],
            "released_at": "2020-04-13T09:19:46.342018+03:00"
          },
          {
            "id": 358843,
            "name": "The Shootist",
            "type": "m",
            "is_new": true,
            "rated": "PG",
            "rating": 7.7,
            "genres": [
              {
                "id": 356817,
                "name": "drama"
              },
              {
                "id": 356962,
                "name": "romance"
              },
              {
                "id": 356972,
                "name": "western"
              }
            ],
            "released_at": "2020-04-13T09:19:46.342018+03:00"
          },
          {
            "id": 358837,
            "name": "River of No Return",
            "type": "m",
            "is_new": true,
            "rated": "PG-13",
            "rating": 6.6,
            "genres": [
              {
                "id": 356817,
                "name": "drama"
              },
              {
                "id": 356960,
                "name": "action"
              },
              {
                "id": 356962,
                "name": "romance"
              },
              {
                "id": 356963,
                "name": "adventure"
              },
              {
                "id": 356968,
                "name": "musical"
              },
              {
                "id": 356972,
                "name": "western"
              }
            ],
            "released_at": "2020-04-13T09:19:46.342018+03:00"
          },
          {
            "id": 358835,
            "name": "Bacurau",
            "type": "m",
            "is_new": true,
            "rated": "PG-13",
            "rating": 7.9,
            "genres": [
              {
                "id": 356956,
                "name": "thriller"
              },
              {
                "id": 356960,
                "name": "action"
              },
              {
                "id": 356961,
                "name": "mystery"
              },
              {
                "id": 356963,
                "name": "adventure"
              },
              {
                "id": 356969,
                "name": "sci-fi"
              },
              {
                "id": 356972,
                "name": "western"
              }
            ],
            "released_at": "2020-04-13T09:19:46.342018+03:00"
          },
          {
            "id": 358986,
            "name": "Sonora, the Devil's Highway",
            "type": "m",
            "is_new": true,
            "rated": "PG-13",
            "rating": 6.2,
            "genres": [
              {
                "id": 356817,
                "name": "drama"
              },
              {
                "id": 356956,
                "name": "thriller"
              },
              {
                "id": 356972,
                "name": "western"
              }
            ],
            "released_at": "2020-04-13T09:19:46.342018+03:00"
          },
          {
            "id": 358932,
            "name": "Eminence Hill",
            "type": "m",
            "is_new": true,
            "rated": "R",
            "rating": 4.0,
            "genres": [
              {
                "id": 356972,
                "name": "western"
              }
            ],
            "released_at": "2020-04-13T09:19:46.342018+03:00"
          },
          {
            "id": 358918,
            "name": "Badland",
            "type": "m",
            "is_new": true,
            "rated": "PG-13",
            "rating": 6.7,
            "genres": [
              {
                "id": 356972,
                "name": "western"
              }
            ],
            "released_at": "2020-04-13T09:19:46.342018+03:00"
          }
        ]
      },
      {
        "id": 356965,
        "name": "war",
        "title_list": [
          {
            "id": 357727,
            "name": "The Platform",
            "type": "m",
            "is_new": true,
            "rated": "G",
            "rating": 7.0,
            "genres": [
              {
                "id": 356817,
                "name": "drama"
              },
              {
                "id": 356956,
                "name": "thriller"
              },
              {
                "id": 356958,
                "name": "horror"
              },
              {
                "id": 356965,
                "name": "war"
              },
              {
                "id": 356969,
                "name": "sci-fi"
              }
            ],
            "released_at": "2020-04-13T09:19:46.342018+03:00"
          },
          {
            "id": 357550,
            "name": "Shoulder Arms",
            "type": "m",
            "is_new": true,
            "rated": "G",
            "rating": 6.9,
            "genres": [
              {
                "id": 356954,
                "name": "comedy"
              },
              {
                "id": 356965,
                "name": "war"
              }
            ],
            "released_at": "2020-04-13T09:19:46.342018+03:00"
          },
          {
            "id": 357630,
            "name": "The Lost Strait",
            "type": "m",
            "is_new": true,
            "rated": "G",
            "rating": 8.6,
            "genres": [
              {
                "id": 356965,
                "name": "war"
              }
            ],
            "released_at": "2020-04-13T09:19:46.342018+03:00"
          },
          {
            "id": 357637,
            "name": "The Endless Trench",
            "type": "m",
            "is_new": true,
            "rated": "G",
            "rating": 7.2,
            "genres": [
              {
                "id": 356817,
                "name": "drama"
              },
              {
                "id": 356965,
                "name": "war"
              }
            ],
            "released_at": "2020-04-13T09:19:46.342018+03:00"
          },
          {
            "id": 357953,
            "name": "Game of Thrones: Conquest & Rebellion",
            "type": "m",
            "is_new": true,
            "rated": "G",
            "rating": 8.1,
            "genres": [
              {
                "id": 356952,
                "name": "tv"
              },
              {
                "id": 356957,
                "name": "anime"
              },
              {
                "id": 356959,
                "name": "fantasy"
              },
              {
                "id": 356965,
                "name": "war"
              }
            ],
            "released_at": "2020-04-13T09:19:46.342018+03:00"
          },
          {
            "id": 357931,
            "name": "Panipat",
            "type": "m",
            "is_new": true,
            "rated": "G",
            "rating": 8.3,
            "genres": [
              {
                "id": 356817,
                "name": "drama"
              },
              {
                "id": 356960,
                "name": "action"
              },
              {
                "id": 356964,
                "name": "history"
              },
              {
                "id": 356965,
                "name": "war"
              }
            ],
            "released_at": "2020-04-13T09:19:46.342018+03:00"
          },
          {
            "id": 358009,
            "name": "Towards The River Glorious",
            "type": "m",
            "is_new": true,
            "rated": "G",
            "rating": 0.0,
            "genres": [
              {
                "id": 356817,
                "name": "drama"
              },
              {
                "id": 356965,
                "name": "war"
              }
            ],
            "released_at": "2020-04-13T09:19:46.342018+03:00"
          },
          {
            "id": 357800,
            "name": "Waiting for Anya",
            "type": "m",
            "is_new": true,
            "rated": "G",
            "rating": 0.0,
            "genres": [
              {
                "id": 356817,
                "name": "drama"
              },
              {
                "id": 356965,
                "name": "war"
              }
            ],
            "released_at": "2020-04-13T09:19:46.342018+03:00"
          },
          {
            "id": 357802,
            "name": "Ay, Carmela!",
            "type": "m",
            "is_new": true,
            "rated": "G",
            "rating": 6.8,
            "genres": [
              {
                "id": 356817,
                "name": "drama"
              },
              {
                "id": 356954,
                "name": "comedy"
              },
              {
                "id": 356965,
                "name": "war"
              }
            ],
            "released_at": "2020-04-13T09:19:46.342018+03:00"
          },
          {
            "id": 357900,
            "name": "Sisters in Arms",
            "type": "m",
            "is_new": true,
            "rated": "G",
            "rating": 7.9,
            "genres": [
              {
                "id": 356817,
                "name": "drama"
              },
              {
                "id": 356960,
                "name": "action"
              },
              {
                "id": 356965,
                "name": "war"
              }
            ],
            "released_at": "2020-04-13T09:19:46.342018+03:00"
          }
        ]
      },
      {
        "id": 356952,
        "name": "tv",
        "title_list": [
          {
            "id": 357695,
            "name": "Capsized: Blood in the Water",
            "type": "m",
            "is_new": true,
            "rated": "G",
            "rating": 2.4,
            "genres": [
              {
                "id": 356817,
                "name": "drama"
              },
              {
                "id": 356952,
                "name": "tv"
              },
              {
                "id": 356956,
                "name": "thriller"
              }
            ],
            "released_at": "2020-04-13T09:19:46.342018+03:00"
          },
          {
            "id": 357692,
            "name": "No Good Deed",
            "type": "m",
            "is_new": true,
            "rated": "G",
            "rating": 6.0,
            "genres": [
              {
                "id": 356952,
                "name": "tv"
              },
              {
                "id": 356956,
                "name": "thriller"
              }
            ],
            "released_at": "2020-04-13T09:19:46.342018+03:00"
          },
          {
            "id": 357762,
            "name": "Toy Story of Terror!",
            "type": "m",
            "is_new": true,
            "rated": "G",
            "rating": 7.2,
            "genres": [
              {
                "id": 356952,
                "name": "tv"
              },
              {
                "id": 356954,
                "name": "comedy"
              },
              {
                "id": 356957,
                "name": "anime"
              },
              {
                "id": 356958,
                "name": "horror"
              },
              {
                "id": 356959,
                "name": "fantasy"
              },
              {
                "id": 356963,
                "name": "adventure"
              },
              {
                "id": 356970,
                "name": "family"
              }
            ],
            "released_at": "2020-04-13T09:19:46.342018+03:00"
          },
          {
            "id": 357771,
            "name": "Ice Age: The Great Egg-Scapade",
            "type": "m",
            "is_new": true,
            "rated": "G",
            "rating": 6.3,
            "genres": [
              {
                "id": 356952,
                "name": "tv"
              },
              {
                "id": 356954,
                "name": "comedy"
              },
              {
                "id": 356957,
                "name": "anime"
              },
              {
                "id": 356963,
                "name": "adventure"
              },
              {
                "id": 356970,
                "name": "family"
              }
            ],
            "released_at": "2020-04-13T09:19:46.342018+03:00"
          },
          {
            "id": 357772,
            "name": "Ice Age: A Mammoth Christmas",
            "type": "m",
            "is_new": true,
            "rated": "G",
            "rating": 6.2,
            "genres": [
              {
                "id": 356952,
                "name": "tv"
              },
              {
                "id": 356957,
                "name": "anime"
              },
              {
                "id": 356970,
                "name": "family"
              }
            ],
            "released_at": "2020-04-13T09:19:46.342018+03:00"
          },
          {
            "id": 357629,
            "name": "Killer in Suburbia",
            "type": "m",
            "is_new": true,
            "rated": "G",
            "rating": 6.3,
            "genres": [
              {
                "id": 356952,
                "name": "tv"
              },
              {
                "id": 356956,
                "name": "thriller"
              }
            ],
            "released_at": "2020-04-13T09:19:46.342018+03:00"
          },
          {
            "id": 357622,
            "name": "Island of Shadows",
            "type": "m",
            "is_new": true,
            "rated": "G",
            "rating": 0.0,
            "genres": [
              {
                "id": 356952,
                "name": "tv"
              },
              {
                "id": 356956,
                "name": "thriller"
              }
            ],
            "released_at": "2020-04-13T09:19:46.342018+03:00"
          },
          {
            "id": 357953,
            "name": "Game of Thrones: Conquest & Rebellion",
            "type": "m",
            "is_new": true,
            "rated": "G",
            "rating": 8.1,
            "genres": [
              {
                "id": 356952,
                "name": "tv"
              },
              {
                "id": 356957,
                "name": "anime"
              },
              {
                "id": 356959,
                "name": "fantasy"
              },
              {
                "id": 356965,
                "name": "war"
              }
            ],
            "released_at": "2020-04-13T09:19:46.342018+03:00"
          },
          {
            "id": 358005,
            "name": "Rocko's Modern Life: Static Cling",
            "type": "m",
            "is_new": true,
            "rated": "G",
            "rating": 6.5,
            "genres": [
              {
                "id": 356952,
                "name": "tv"
              },
              {
                "id": 356954,
                "name": "comedy"
              },
              {
                "id": 356957,
                "name": "anime"
              }
            ],
            "released_at": "2020-04-13T09:19:46.342018+03:00"
          },
          {
            "id": 357892,
            "name": "Secrets in a Small Town",
            "type": "m",
            "is_new": true,
            "rated": "G",
            "rating": 6.2,
            "genres": [
              {
                "id": 356817,
                "name": "drama"
              },
              {
                "id": 356952,
                "name": "tv"
              },
              {
                "id": 356956,
                "name": "thriller"
              }
            ],
            "released_at": "2020-04-13T09:19:46.342018+03:00"
          }
        ]
      }
    ],
    "featured": [
      {
        "id": 357034,
        "name": "Beasts Clawing at Straws",
        "type": "m",
        "is_new": true,
        "rated": "G",
        "rating": 7.0,
        "genres": [
          {
            "id": 356956,
            "name": "thriller"
          },
          {
            "id": 356961,
            "name": "mystery"
          }
        ],
        "released_at": "2020-04-13T09:19:46.342018+03:00"
      },
      {
        "id": 357035,
        "name": "Doom: Annihilation",
        "type": "m",
        "is_new": true,
        "rated": "G",
        "rating": 4.5,
        "genres": [
          {
            "id": 356958,
            "name": "horror"
          },
          {
            "id": 356960,
            "name": "action"
          },
          {
            "id": 356961,
            "name": "mystery"
          },
          {
            "id": 356969,
            "name": "sci-fi"
          }
        ],
        "released_at": "2020-04-13T09:19:46.342018+03:00"
      },
      {
        "id": 357036,
        "name": "State Like Sleep",
        "type": "m",
        "is_new": true,
        "rated": "G",
        "rating": 4.9,
        "genres": [
          {
            "id": 356817,
            "name": "drama"
          }
        ],
        "released_at": "2020-04-13T09:19:46.342018+03:00"
      },
      {
        "id": 357033,
        "name": "We Only Know So Much",
        "type": "m",
        "is_new": true,
        "rated": "G",
        "rating": 6.0,
        "genres": [],
        "released_at": "2020-04-13T09:19:46.342018+03:00"
      }
    ],
    "recently_added": [
      {
        "id": 399043,
        "name": "بث نكات",
        "type": "s",
        "is_new": true,
        "rated": "G",
        "rating": null,
        "genres": [
          {
            "id": 356954,
            "name": "comedy"
          }
        ],
        "released_at": "2020-04-13T09:19:46.342018+03:00"
      },
      {
        "id": 399044,
        "name": "S'parta",
        "type": "s",
        "is_new": true,
        "rated": "G",
        "rating": null,
        "genres": [
          {
            "id": 356817,
            "name": "drama"
          }
        ],
        "released_at": "2020-04-13T09:19:46.342018+03:00"
      },
      {
        "id": 399045,
        "name": "وتمضي الأيام",
        "type": "s",
        "is_new": true,
        "rated": "G",
        "rating": null,
        "genres": [
          {
            "id": 356817,
            "name": "drama"
          },
          {
            "id": 356955,
            "name": "crime"
          },
          {
            "id": 356960,
            "name": "action"
          },
          {
            "id": 356962,
            "name": "romance"
          }
        ],
        "released_at": "2020-04-13T09:19:46.342018+03:00"
      },
      {
        "id": 399048,
        "name": "When Heroes Fly",
        "type": "s",
        "is_new": true,
        "rated": "G",
        "rating": null,
        "genres": [
          {
            "id": 356817,
            "name": "drama"
          },
          {
            "id": 356960,
            "name": "action"
          }
        ],
        "released_at": "2020-04-13T09:19:46.342018+03:00"
      },
      {
        "id": 399049,
        "name": "Hymn of Death",
        "type": "s",
        "is_new": true,
        "rated": "G",
        "rating": null,
        "genres": [
          {
            "id": 356817,
            "name": "drama"
          }
        ],
        "released_at": "2020-04-13T09:19:46.342018+03:00"
      },
      {
        "id": 399050,
        "name": "50 ألف",
        "type": "s",
        "is_new": true,
        "rated": "G",
        "rating": null,
        "genres": [
          {
            "id": 356817,
            "name": "drama"
          }
        ],
        "released_at": "2020-04-13T09:19:46.342018+03:00"
      },
      {
        "id": 399051,
        "name": "Fluttering Warning",
        "type": "s",
        "is_new": true,
        "rated": "G",
        "rating": null,
        "genres": [
          {
            "id": 356962,
            "name": "romance"
          }
        ],
        "released_at": "2020-04-13T09:19:46.342018+03:00"
      },
      {
        "id": 399052,
        "name": "A.D. The Bible Continues",
        "type": "s",
        "is_new": true,
        "rated": "G",
        "rating": null,
        "genres": [
          {
            "id": 356817,
            "name": "drama"
          }
        ],
        "released_at": "2020-04-13T09:19:46.342018+03:00"
      },
      {
        "id": 399053,
        "name": "بره الدنيا",
        "type": "s",
        "is_new": true,
        "rated": "G",
        "rating": null,
        "genres": [
          {
            "id": 356817,
            "name": "drama"
          }
        ],
        "released_at": "2020-04-13T09:19:46.342018+03:00"
      },
      {
        "id": 399041,
        "name": "The Story of Us with Morgan Freeman",
        "type": "s",
        "is_new": true,
        "rated": "G",
        "rating": null,
        "genres": [
          {
            "id": 356967,
            "name": "documentary"
          }
        ],
        "released_at": "2020-04-13T09:19:46.342018+03:00"
      }
    ],
    "recently_watched": [
      {
        "id": 13,
        "user": 4,
        "topic": {
          "id": 372183,
          "name": "One Piece",
          "type": "s",
          "is_new": true,
          "rated": "G",
          "rating": null,
          "genres": [
            {
              "id": 356954,
              "name": "comedy"
            },
            {
              "id": 356957,
              "name": "anime"
            },
            {
              "id": 356960,
              "name": "action"
            }
          ],
          "released_at": "2020-04-13T09:19:46.342018+03:00"
        },
        "season": null,
        "episode": null,
        "playback_position": 50,
        "runtime": 130,
        "hit_date": "2020-04-14T12:47:27.209783+03:00"
      },
      {
        "id": 12,
        "user": 4,
        "topic": {
          "id": 357550,
          "name": "Shoulder Arms",
          "type": "m",
          "is_new": true,
          "rated": "G",
          "rating": 6.9,
          "genres": [
            {
              "id": 356954,
              "name": "comedy"
            },
            {
              "id": 356965,
              "name": "war"
            }
          ],
          "released_at": "2020-04-13T09:19:46.342018+03:00"
        },
        "season": null,
        "episode": null,
        "playback_position": 50,
        "runtime": 130,
        "hit_date": "2020-04-14T09:22:09.731768+03:00"
      },
      {
        "id": 11,
        "user": 4,
        "topic": {
          "id": 398474,
          "name": "Broken Trail",
          "type": "s",
          "is_new": true,
          "rated": "G",
          "rating": null,
          "genres": [
            {
              "id": 356972,
              "name": "western"
            }
          ],
          "released_at": "2020-04-13T09:19:46.342018+03:00"
        },
        "season": null,
        "episode": null,
        "playback_position": 50,
        "runtime": 130,
        "hit_date": "2020-04-14T09:21:27.768669+03:00"
      },
      {
        "id": 10,
        "user": 4,
        "topic": {
          "id": 357931,
          "name": "Panipat",
          "type": "m",
          "is_new": true,
          "rated": "G",
          "rating": 8.3,
          "genres": [
            {
              "id": 356817,
              "name": "drama"
            },
            {
              "id": 356960,
              "name": "action"
            },
            {
              "id": 356964,
              "name": "history"
            },
            {
              "id": 356965,
              "name": "war"
            }
          ],
          "released_at": "2020-04-13T09:19:46.342018+03:00"
        },
        "season": null,
        "episode": null,
        "playback_position": 50,
        "runtime": 130,
        "hit_date": "2020-04-14T09:18:03.609838+03:00"
      },
      {
        "id": 7,
        "user": 4,
        "topic": {
          "id": 371504,
          "name": "Lonesome Dove",
          "type": "s",
          "is_new": true,
          "rated": "G",
          "rating": null,
          "genres": [
            {
              "id": 356817,
              "name": "drama"
            },
            {
              "id": 356963,
              "name": "adventure"
            },
            {
              "id": 356972,
              "name": "western"
            }
          ],
          "released_at": "2020-04-13T09:19:46.342018+03:00"
        },
        "season": null,
        "episode": null,
        "playback_position": 50,
        "runtime": 130,
        "hit_date": "2020-04-14T08:43:03.567651+03:00"
      }
    ],
    "recommended": {
      "id": 357703,
      "name": "Impractical Jokers: The Movie",
      "type": "m",
      "is_new": true,
      "rated": "G",
      "rating": 8.1,
      "genres": [
        {
          "id": 356954,
          "name": "comedy"
        }
      ],
      "released_at": "2020-04-13T09:19:46.342018+03:00"
    }
  }
}